%YAML 1.1
%TAG !u! tag:unity3d.com,2011:
--- !u!1001 &8541789692223106243
PrefabInstance:
  m_ObjectHideFlags: 0
  serializedVersion: 2
  m_Modification:
    m_TransformParent: {fileID: 0}
    m_Modifications:
    - target: {fileID: 4134299783365179307, guid: 7adc298f3f78d12419a0cf6b28446929,
        type: 3}
      propertyPath: m_Name
      value: tower_1
      objectReference: {fileID: 0}
    - target: {fileID: 4078567637864279447, guid: 7adc298f3f78d12419a0cf6b28446929,
        type: 3}
      propertyPath: m_LocalPosition.x
      value: 30
      objectReference: {fileID: 0}
    - target: {fileID: 4078567637864279447, guid: 7adc298f3f78d12419a0cf6b28446929,
        type: 3}
      propertyPath: m_LocalPosition.y
      value: -12.5
      objectReference: {fileID: 0}
    - target: {fileID: 4078567637864279447, guid: 7adc298f3f78d12419a0cf6b28446929,
        type: 3}
      propertyPath: m_LocalPosition.z
      value: 0
      objectReference: {fileID: 0}
    - target: {fileID: 4078567637864279447, guid: 7adc298f3f78d12419a0cf6b28446929,
        type: 3}
      propertyPath: m_LocalRotation.x
      value: 0
      objectReference: {fileID: 0}
    - target: {fileID: 4078567637864279447, guid: 7adc298f3f78d12419a0cf6b28446929,
        type: 3}
      propertyPath: m_LocalRotation.y
      value: 0
      objectReference: {fileID: 0}
    - target: {fileID: 4078567637864279447, guid: 7adc298f3f78d12419a0cf6b28446929,
        type: 3}
      propertyPath: m_LocalRotation.z
      value: 0
      objectReference: {fileID: 0}
    - target: {fileID: 4078567637864279447, guid: 7adc298f3f78d12419a0cf6b28446929,
        type: 3}
      propertyPath: m_LocalRotation.w
      value: 1
      objectReference: {fileID: 0}
    - target: {fileID: 4078567637864279447, guid: 7adc298f3f78d12419a0cf6b28446929,
        type: 3}
      propertyPath: m_RootOrder
      value: 0
      objectReference: {fileID: 0}
    - target: {fileID: 4078567637864279447, guid: 7adc298f3f78d12419a0cf6b28446929,
        type: 3}
      propertyPath: m_LocalEulerAnglesHint.x
      value: 0
      objectReference: {fileID: 0}
    - target: {fileID: 4078567637864279447, guid: 7adc298f3f78d12419a0cf6b28446929,
        type: 3}
      propertyPath: m_LocalEulerAnglesHint.y
      value: 0
      objectReference: {fileID: 0}
    - target: {fileID: 4078567637864279447, guid: 7adc298f3f78d12419a0cf6b28446929,
        type: 3}
      propertyPath: m_LocalEulerAnglesHint.z
      value: 0
      objectReference: {fileID: 0}
    - target: {fileID: 651163508032623271, guid: 7adc298f3f78d12419a0cf6b28446929,
        type: 3}
      propertyPath: m_Sprite
      value: 
      objectReference: {fileID: 0}
    - target: {fileID: 651163508032623271, guid: 7adc298f3f78d12419a0cf6b28446929,
        type: 3}
      propertyPath: m_WasSpriteAssigned
      value: 0
      objectReference: {fileID: 0}
    m_RemovedComponents:
    - {fileID: 7642965888454583082, guid: 7adc298f3f78d12419a0cf6b28446929, type: 3}
    - {fileID: 673481758, guid: 7adc298f3f78d12419a0cf6b28446929, type: 3}
  m_SourcePrefab: {fileID: 100100000, guid: 7adc298f3f78d12419a0cf6b28446929, type: 3}
